{
  "name": "cobblmeon:desert_ruins_towers",
  "fallback": "minecraft:empty",
  "elements": [
    {
      "weight": 1,
      "element": {
        "location": "cobblemon:ruins/desert/surface/tower",
        "element_type": "minecraft:single_pool_element",
        "processors": "cobblemon:desert_ruins_tower",
        "projection": "rigid"
      }
    }
  ]
}