{
	"format_version": "1.8.0",
	"animations": {
		"animation.arctovish_fetus.sleep": {
			"loop": true,
			"bones": {
				"body": {
					"rotation": [5, 0, 0],
					"position": [0, 0, 0.2]
				},
				"leg_right": {
					"rotation": [0, 30, 0]
				},
				"tail": {
					"rotation": [15, 0, 0]
				},
				"tail2": {
					"rotation": [10, 0, 0]
				},
				"leg_left": {
					"rotation": [0, -30, 0]
				},
				"fin_right": {
					"rotation": [-5, 0, -52]
				},
				"head": {
					"rotation": [5, 0, 0]
				},
				"jaw": {
					"rotation": [-10, 0, 0]
				},
				"fin_left": {
					"rotation": [-5, 0, 52]
				}
			}
		}
	}
}