{
	"format_version": "1.8.0",
	"animations": {
		"animation.dracovish_fetus.sleep": {
			"loop": true,
			"bones": {
				"body": {
					"rotation": [15, 0, 0],
					"position": [0, 0, 1.2]
				},
				"tail": {
					"rotation": [-10, 0, 0]
				},
				"tail2": {
					"rotation": [-10, 0, 0]
				},
				"leg_right": {
					"rotation": [10, 0, -5]
				},
				"leg_right2": {
					"rotation": [-30, 0, 0]
				},
				"foot_right": {
					"rotation": [60, 0, 0]
				},
				"head": {
					"rotation": [-5, 0, 0]
				},
				"jaw": {
					"rotation": [-12.5, 0, 0]
				},
				"leg_left": {
					"rotation": [10, 0, 5]
				},
				"leg_left2": {
					"rotation": [-30, 0, 0]
				},
				"foot_left": {
					"rotation": [60, 0, 0]
				},
				"fin_right": {
					"rotation": [0, 0, 75]
				},
				"fin_left": {
					"rotation": [0, 0, -75]
				}
			}
		}
	}
}