{
  "asset_name": "dusk_stone",
  "description": {
    "translate": "trim_material.cobblemon.dusk_stone",
    "fallback": "Dusk Stone",
    "color": "#804E80"
  },
  "ingredient": "cobblemon:dusk_stone",
  "item_model_index": 0.2629
}
