﻿{
  "name": "Dudunsparce",
  "nationalPokedexNumber": 982,
  "primaryType": "normal",
  "abilities": [
    "serenegrace",
    "runaway",
    "h:rattled"
  ],
  "baseStats": {
    "hp": 125,
    "attack": 100,
    "defence": 80,
    "special_attack": 85,
    "special_defence": 75,
    "speed": 55
  },
  "catchRate": 45,
  "maleRatio": 0.5,
  "baseExperienceYield": 182,
  "baseFriendship": 50,
  "evYield": {
    "hp": 2,
    "attack": 0,
    "defence": 0,
    "special_attack": 0,
    "special_defence": 0,
    "speed": 0
  },
  "experienceGroup": "medium_fast",
  "eggCycles": 20,
  "eggGroups": [
    "field"
  ],
  "moves": [
    "1:defensecurl",
    "1:flail",
    "4:mudslap",
    "8:rollout",
    "12:glare",
    "16:screech",
    "20:ancientpower",
    "24:drillrun",
    "28:yawn",
    "32:hyperdrill",
    "36:roost",
    "40:dragonrush",
    "44:coil",
    "48:doubleedge",
    "52:endeavor",
    "56:hurricane",
    "62:boomburst",
    "tm:agility",
    "tm:airslash",
    "tm:amnesia",
    "tm:batonpass",
    "tm:blizzard",
    "tm:bodypress",
    "tm:bodyslam",
    "tm:bulldoze",
    "tm:calmmind",
    "tm:chillingwater",
    "tm:dig",
    "tm:dragontail",
    "tm:drillrun",
    "tm:earthpower",
    "tm:earthquake",
    "tm:endure",
    "tm:facade",
    "tm:fireblast",
    "tm:flamethrower",
    "tm:gigaimpact",
    "tm:heavyslam",
    "tm:helpinghand",
    "tm:hex",
    "tm:hurricane",
    "tm:hyperbeam",
    "tm:hypervoice",
    "tm:icebeam",
    "tm:icespinner",
    "tm:mudshot",
    "tm:mudslap",
    "tm:outrage",
    "tm:poisonjab",
    "tm:poisontail",
    "tm:pounce",
    "tm:protect",
    "tm:raindance",
    "tm:rest",
    "tm:rockslide",
    "tm:rocktomb",
    "tm:sandstorm",
    "tm:scaryface",
    "tm:shadowball",
    "tm:sleeptalk",
    "tm:smartstrike",
    "tm:solarbeam",
    "tm:stealthrock",
    "tm:stompingtantrum",
    "tm:stoneedge",
    "tm:storedpower",
    "tm:substitute",
    "tm:sunnyday",
    "tm:tailwind",
    "tm:takedown",
    "tm:terablast",
    "tm:thief",
    "tm:thunder",
    "tm:thunderbolt",
    "tm:wildcharge",
    "tm:zenheadbutt"
  ],
  "labels": [
    "gen9"
  ],
  "aspects": [],
  "height": 36,
  "weight": 392,
  "preEvolution": "dunsparce",
  "evolutions": [],
  "cannotDynamax": false,
  "forms": [
    {
      "name": "Three-Segment",
      "primaryType": "normal",
      "abilities": [
        "serenegrace",
        "runaway",
        "h:rattled"
      ],
      "baseStats": {
        "hp": 125,
        "attack": 100,
        "defence": 80,
        "special_attack": 85,
        "special_defence": 75,
        "speed": 55
      },
      "catchRate": 45,
      "maleRatio": 0.5,
      "baseFriendship": 50,
      "evYield": {
        "hp": 2,
        "attack": 0,
        "defence": 0,
        "special_attack": 0,
        "special_defence": 0,
        "speed": 0
      },
      "experienceGroup": "medium_fast",
      "eggCycles": 20,
      "eggGroups": [
        "field"
      ],
      "moves": [],
      "labels": [
        "gen9"
      ],
      "aspects": [
        "three-segment"
      ],
      "height": 45,
      "weight": 474,
      "preEvolution": "dunsparce",
      "cannotDynamax": false,
      "battleOnly": false
    }
  ],
  "pokedex": [
    "cobblemon.species.dudunsparce.desc"
  ],
  "drops": {
    "amount": 2,
    "entries": [
      {
        "item": "cobblemon:rocky_helmet",
        "percentage": 5.0
      },
      {
        "item": "cobblemon:cheri_berry",
        "percentage": 5.0
      }
    ]
  }
}