﻿{
  "implemented": true,
  "name": "Snorlax",
  "nationalPokedexNumber": 143,
  "primaryType": "normal",
  "abilities": [
    "immunity",
    "thickfat",
    "h:gluttony"
  ],
  "baseStats": {
    "hp": 160,
    "attack": 110,
    "defence": 65,
    "special_attack": 65,
    "special_defence": 110,
    "speed": 30
  },
  "catchRate": 25,
  "maleRatio": 0.875,
  "shoulderMountable": false,
  "forms": [
    {
      "name": "Gmax",
      "primaryType": "normal",
      "abilities": [
        "immunity",
        "thickfat",
        "h:gluttony"
      ],
      "baseStats": {
        "hp": 160,
        "attack": 110,
        "defence": 65,
        "special_attack": 65,
        "special_defence": 110,
        "speed": 30
      },
      "catchRate": 25,
      "maleRatio": 0.875,
      "baseExperienceYield": 189,
      "baseFriendship": 50,
      "evYield": {
        "hp": 2,
        "attack": 0,
        "defence": 0,
        "special_attack": 0,
        "special_defence": 0,
        "speed": 0
      },
      "experienceGroup": "slow",
      "eggCycles": 40,
      "eggGroups": [
        "monster"
      ],
      "labels": [
        "gen8",
        "gmax"
      ],
      "aspects": [
        "gmax"
      ],
      "height": 350,
      "weight": 0,
      "cannotDynamax": false,
      "battleOnly": false
    }
  ],
  "baseExperienceYield": 189,
  "experienceGroup": "slow",
  "eggCycles": 40,
  "eggGroups": [
    "monster"
  ],
  "drops": {
    "amount": 8,
    "entries": [
      {
        "item": "minecraft:apple",
        "quantityRange": "0-3"
      },
      {
        "item": "minecraft:apple",
        "quantityRange": "0-3"
      },
      {
        "item": "cobblemon:chesto_berry",
        "percentage": 5.0
      },
      {
        "item": "cobblemon:leftovers",
        "percentage": 5.0
      }
    ]
  },
  "moves": [
    "1:block",
    "1:covet",
    "1:defensecurl",
    "1:flail",
    "1:fling",
    "1:lastresort",
    "1:lick",
    "1:metronome",
    "1:recycle",
    "1:screech",
    "1:stockpile",
    "1:swallow",
    "1:tackle",
    "12:yawn",
    "16:bite",
    "17:chipaway",
    "17:headbutt",
    "20:rest",
    "20:sleeptalk",
    "20:snore",
    "24:crunch",
    "28:bodyslam",
    "32:heavyslam",
    "36:amnesia",
    "36:rollout",
    "40:highhorsepower",
    "44:hammerarm",
    "48:bellydrum",
    "51:hyperbeam",
    "52:belch",
    "56:gigaimpact",
    "egg:afteryou",
    "egg:belch",
    "egg:charm",
    "egg:counter",
    "egg:curse",
    "egg:doubleedge",
    "egg:fissure",
    "egg:gastroacid",
    "egg:lick",
    "egg:naturalgift",
    "egg:poweruppunch",
    "egg:pursuit",
    "egg:substitute",
    "egg:whirlwind",
    "tm:amnesia",
    "tm:attract",
    "tm:blizzard",
    "tm:bodypress",
    "tm:bodyslam",
    "tm:brickbreak",
    "tm:bulldoze",
    "tm:captivate",
    "tm:charm",
    "tm:chillingwater",
    "tm:confide",
    "tm:crunch",
    "tm:curse",
    "tm:dig",
    "tm:darkestlariat",
    "tm:doubleedge",
    "tm:doubleteam",
    "tm:earthquake",
    "tm:encore",
    "tm:endure",
    "tm:facade",
    "tm:fireblast",
    "tm:firepunch",
    "tm:flamethrower",
    "tm:fling",
    "tm:focusblast",
    "tm:focuspunch",
    "tm:frustration",
    "tm:gigaimpact",
    "tm:gunkshot",
    "tm:hardpress",
    "tm:heatcrash",
    "tm:heavyslam",
    "tm:helpinghand",
    "tm:hiddenpower",
    "tm:highhorsepower",
    "tm:hydropump",
    "tm:hyperbeam",
    "tm:hypervoice",
    "tm:icebeam",
    "tm:icepunch",
    "tm:icywind",
    "tm:incinerate",
    "tm:ironhead",
    "tm:megakick",
    "tm:megapunch",
    "tm:metronome",
    "tm:mudslap",
    "tm:naturalgift",
    "tm:outrage",
    "tm:payday",
    "tm:poweruppunch",
    "tm:protect",
    "tm:psychic",
    "tm:raindance",
    "tm:recycle",
    "tm:rest",
    "tm:retaliate",
    "tm:return",
    "tm:rockclimb",
    "tm:rockslide",
    "tm:rocksmash",
    "tm:rocktomb",
    "tm:round",
    "tm:sandstorm",
    "tm:screech",
    "tm:secretpower",
    "tm:seedbomb",
    "tm:selfdestruct",
    "tm:shadowball",
    "tm:shockwave",
    "tm:sleeptalk",
    "tm:smackdown",
    "tm:snore",
    "tm:solarbeam",
    "tm:stompingtantrum",
    "tm:strength",
    "tm:substitute",
    "tm:sunnyday",
    "tm:supercellslam",
    "tm:superpower",
    "tm:surf",
    "tm:swagger",
    "tm:takedown",
    "tm:terablast",
    "tm:thunder",
    "tm:thunderbolt",
    "tm:thunderpunch",
    "tm:toxic",
    "tm:trailblaze",
    "tm:uproar",
    "tm:waterpulse",
    "tm:whirlpool",
    "tm:wildcharge",
    "tm:workup",
    "tm:zenheadbutt",
    "tutor:afteryou",
    "tutor:amnesia",
    "tutor:attract",
    "tutor:bellydrum",
    "tutor:bide",
    "tutor:blizzard",
    "tutor:block",
    "tutor:bodyslam",
    "tutor:brickbreak",
    "tutor:bubblebeam",
    "tutor:celebrate",
    "tutor:counter",
    "tutor:covet",
    "tutor:crunch",
    "tutor:curse",
    "tutor:defensecurl",
    "tutor:doubleedge",
    "tutor:doubleteam",
    "tutor:dynamicpunch",
    "tutor:earthquake",
    "tutor:endure",
    "tutor:facade",
    "tutor:fireblast",
    "tutor:firepunch",
    "tutor:fissure",
    "tutor:flamethrower",
    "tutor:focuspunch",
    "tutor:frustration",
    "tutor:gunkshot",
    "tutor:harden",
    "tutor:headbutt",
    "tutor:hiddenpower",
    "tutor:hyperbeam",
    "tutor:hypervoice",
    "tutor:icebeam",
    "tutor:icepunch",
    "tutor:icywind",
    "tutor:ironhead",
    "tutor:lastresort",
    "tutor:lick",
    "tutor:megakick",
    "tutor:megapunch",
    "tutor:metronome",
    "tutor:mimic",
    "tutor:mudslap",
    "tutor:outrage",
    "tutor:payday",
    "tutor:protect",
    "tutor:psychic",
    "tutor:psychup",
    "tutor:psywave",
    "tutor:rage",
    "tutor:raindance",
    "tutor:recycle",
    "tutor:reflect",
    "tutor:refresh",
    "tutor:rest",
    "tutor:return",
    "tutor:rockslide",
    "tutor:rocksmash",
    "tutor:rollout",
    "tutor:sandstorm",
    "tutor:screech",
    "tutor:seedbomb",
    "tutor:seismictoss",
    "tutor:selfdestruct",
    "tutor:shadowball",
    "tutor:shockwave",
    "tutor:skullbash",
    "tutor:sleeptalk",
    "tutor:snatch",
    "tutor:snore",
    "tutor:solarbeam",
    "tutor:steelroller",
    "tutor:stompingtantrum",
    "tutor:strength",
    "tutor:submission",
    "tutor:substitute",
    "tutor:sunnyday",
    "tutor:superpower",
    "tutor:surf",
    "tutor:swagger",
    "tutor:tackle",
    "tutor:takedown",
    "tutor:terrainpulse",
    "tutor:thunder",
    "tutor:thunderbolt",
    "tutor:thunderpunch",
    "tutor:toxic",
    "tutor:watergun",
    "tutor:waterpulse",
    "tutor:yawn",
    "tutor:zapcannon",
    "tutor:zenheadbutt"
  ],
  "labels": [
    "gen1"
  ],
  "pokedex": [
    "cobblemon.species.snorlax.desc"
  ],
  "preEvolution": "munchlax",
  "evolutions": [],
  "baseScale": 2,
  "hitbox": {
    "width": 1.2,
    "height": 1.7,
    "fixed": false
  },
  "baseFriendship": 50,
  "evYield": {
    "hp": 2,
    "attack": 0,
    "defence": 0,
    "special_attack": 0,
    "special_defence": 0,
    "speed": 0
  },
  "height": 21,
  "weight": 4600,
  "aspects": [],
  "cannotDynamax": false
}